Data Science for Managers: My Coding Journal
…
# 3.0 Fixing name on new table ----
prod_cat_name_eng_corrected <- product_cat_name_english %>%
  
  set_names(names(.) %>% 
              
              str_replace_all("_", "\\."))

prod_cat_name_eng_corrected

## # A tibble: 71 x 2
##    product.category.name     product.category.name.english
##    <chr>                     <chr>                        
##  1 agro_industria_e_comercio agro_industry_and_commerce   
##  2 alimentos                 food                         
##  3 alimentos - bebidas       food - drink                 
##  4 artes                     art                          
##  5 artes_e_artesanato        arts_and_craftmanship        
##  6 artigos - de_festas       supplies - party             
##  7 artigos - de_natal        supplies - christmas         
##  8 audio                     audio                        
##  9 automotivo                auto                         
## 10 bebes                     baby                         
## # ... with 61 more rows
…
